5a4650bb9d1fa22c4c039abb,70,2,5a464f7c9d1fa22af0ec82c7,5a464f689d1fa22af0ec8103,2017-12-15 15:34:09 UTC,2017-12-13 14:27:07 UTC
5a4650ef9d1fa22c8951315e,20,2,5a464f7c9d1fa22af0ec82c7,5a464f699d1fa22af0ec8114,2017-12-23 15:34:10 UTC,2017-12-06 14:27:59 UTC
5a4651169d1fa22cc87e2270,20,4,5a464f7c9d1fa22af0ec82c7,5a464f699d1fa22af0ec8115,2017-12-23 15:34:10 UTC,2017-12-06 14:28:38 UTC
5a4651289d1fa22cdbb1512e,49,24,5a464f7c9d1fa22af0ec82c7,5a464f689d1fa22af0ec8101,2018-01-02 12:59:54 UTC,2017-11-29 14:28:56 UTC
5a4651579d1fa22d0082e3a3,10,5,5a464f7c9d1fa22af0ec82c7,5a464f689d1fa22af0ec80ee,2017-12-29 15:17:11 UTC,2017-11-30 14:29:43 UTC
5a4651589d1fa22d06ab647d,1,3,5a464f7c9d1fa22af0ec82c7,5a464f6b9d1fa22af0ec814e,2017-12-29 15:05:11 UTC,2017-12-07 14:29:44 UTC
5a4651769d1fa22d38dfedee,100,1,5a464f7c9d1fa22af0ec82c7,5a464f6d9d1fa22af0ec8180,2017-11-29 14:30:14 UTC,2017-11-29 14:30:14 UTC
5a46519d9d1fa22d72a2c7d1,90,1,5a464f7c9d1fa22af0ec82c7,5a464f6a9d1fa22af0ec8143,2017-11-30 14:30:53 UTC,2017-11-30 14:30:53 UTC
5a4651cd9d1fa22d9c5a483d,50,4,5a464f7c9d1fa22af0ec82c7,5a464f6c9d1fa22af0ec8162,2018-01-02 12:14:53 UTC,2017-12-05 14:31:41 UTC
5a4652219d1fa22dda8f3c50,8,5a464f7c9d1fa22af0ec82c7,5a464f699d1fa22af0ec8107,2018-01-02 12:29:54 UTC,2017-11-29 14:33:05 UTC,56
5a4652219d1fa22dda8f3c52,35,5a464f7c9d1fa22af0ec82c7,5a464f689d1fa22af0ec80fe,2018-01-02 12:59:54 UTC,2017-11-29 14:33:05 UTC,38
5a4652219d1fa22dda8f3c55,60,5,5a464f7c9d1fa22af0ec82c7,5a464f6d9d1fa22af0ec8193,2017-12-29 14:38:11 UTC,2017-11-30 14:33:05 UTC
5a4652219d1fa22dda8f3c57,22,5a464f7c9d1fa22af0ec82c7,5a464f679d1fa22af0ec80e9,2018-01-02 11:57:53 UTC,2017-11-30 14:33:05 UTC,50
5a4652219d1fa22dda8f3c5a,45,9,5a464f7c9d1fa22af0ec82c7,5a464f699d1fa22af0ec8124,2018-01-02 12:48:54 UTC,2017-12-11 14:33:05 UTC
5a4652219d1fa22dda8f3c5d,52,5,5a464f7c9d1fa22af0ec82c7,5a464f699d1fa22af0ec812c,2018-01-02 12:48:54 UTC,2017-12-11 14:33:05 UTC
5a4652219d1fa22dda8f3c5f,9,5a464f7c9d1fa22af0ec82c7,5a464f699d1fa22af0ec8119,2018-01-02 12:48:54 UTC,2017-12-11 14:33:05 UTC,54
5a4652219d1fa22dda8f3c61,12,5a464f7c9d1fa22af0ec82c7,5a464f699d1fa22af0ec811a,2018-01-02 12:48:54 UTC,2017-12-11 14:33:05 UTC,49
5a4652219d1fa22dda8f3c63,15,5a464f7c9d1fa22af0ec82c7,5a464f699d1fa22af0ec8112,2018-01-02 12:48:54 UTC,2017-12-11 14:33:05 UTC,39
5a4652219d1fa22dda8f3c67,80,1,5a464f7c9d1fa22af0ec82c7,5a464f709d1fa22af0ec81d1,2017-12-11 14:33:05 UTC,2017-12-11 14:33:05 UTC
5a4652229d1fa22dda8f3c6b,60,1,5a464f7c9d1fa22af0ec82c7,5a464f699d1fa22af0ec8121,2017-12-15 14:33:06 UTC,2017-12-15 14:33:06 UTC
5a4652229d1fa22dda8f3c73,20,3,5a464f7c9d1fa22af0ec82c7,5a464f689d1fa22af0ec80f4,2018-01-02 12:57:54 UTC,2017-12-24 14:33:06 UTC
5a4652229d1fa22dda8f3c76,70,3,5a464f7c9d1fa22af0ec82c7,5a464f6c9d1fa22af0ec815e,2017-12-13 13:00:52 UTC,2017-12-27 14:33:06 UTC
5a4652229d1fa22dda8f3c78,3,5a464f7c9d1fa22af0ec82c7,5a464f699d1fa22af0ec8116,2017-12-13 13:00:52 UTC,2017-12-27 14:33:06 UTC,70
5a4652229d1fa22dda8f3c7d,90,1,5a464f7c9d1fa22af0ec82c7,5a464f6e9d1fa22af0ec819f,2017-12-27 14:33:06 UTC,2017-12-27 14:33:06 UTC
5a4652229d1fa22dda8f3c7f,2,5a464f7c9d1fa22af0ec82c7,5a464f699d1fa22af0ec812a,2018-01-02 11:34:53 UTC,2017-12-27 14:33:06 UTC,65
5a4652229d1fa22dda8f3c8c,100,3,5a464f7c9d1fa22af0ec82c7,5a464f699d1fa22af0ec8118,2018-01-02 12:20:54 UTC,2017-12-29 13:31:06 UTC
5a4652229d1fa22dda8f3c93,60,2,5a464f7c9d1fa22af0ec82c7,5a464f6e9d1fa22af0ec8195,2017-12-04 15:34:08 UTC,2017-12-29 13:35:06 UTC
5a4652229d1fa22dda8f3c95,2,5a464f7c9d1fa22af0ec82c7,5a464f699d1fa22af0ec810b,2017-12-04 15:34:08 UTC,2017-12-29 13:35:06 UTC,60
5a4652229d1fa22dda8f3c97,2,5a464f7c9d1fa22af0ec82c7,5a464f699d1fa22af0ec810c,2017-12-04 15:34:08 UTC,2017-12-29 13:35:06 UTC,60
5a4652239d1fa22dda8f3c9b,10,3,5a464f7c9d1fa22af0ec82c7,5a464f689d1fa22af0ec8105,2018-01-02 11:57:53 UTC,2017-12-29 13:40:07 UTC
5a4652239d1fa22dda8f3ca0,60,1,5a464f7c9d1fa22af0ec82c7,5a464f6a9d1fa22af0ec8133,2017-12-29 13:51:07 UTC,2017-12-29 13:51:07 UTC
5a4652239d1fa22dda8f3cb7,80,2,5a464f7c9d1fa22af0ec82c7,5a464f6e9d1fa22af0ec81a5,2018-01-02 12:29:54 UTC,2017-12-29 14:15:07 UTC
5a4660719d1fa236ffe64f10,40,2,5a464f7c9d1fa22af0ec82c7,5a464f679d1fa22af0ec80e8,2017-12-24 13:00:52 UTC,2017-12-10 15:34:09 UTC
5a4660719d1fa236ffe64f17,10,1,5a464f7c9d1fa22af0ec82c7,5a464f689d1fa22af0ec80fb,2017-12-15 15:34:09 UTC,2017-12-15 15:34:09 UTC
5a4660719d1fa236ffe64f19,3,5a464f7c9d1fa22af0ec82c7,5a464f689d1fa22af0ec80fc,2018-01-02 12:59:54 UTC,2017-12-15 15:34:09 UTC,15
5a4660719d1fa236ffe64f1b,3,5a464f7c9d1fa22af0ec82c7,5a464f689d1fa22af0ec80fd,2018-01-02 12:59:54 UTC,2017-12-15 15:34:09 UTC,15
5a4660729d1fa236ffe64f29,40,1,5a464f7c9d1fa22af0ec82c7,5a464f699d1fa22af0ec8110,2017-12-24 15:34:10 UTC,2017-12-24 15:34:10 UTC
5a4660729d1fa236ffe64f2b,1,5a464f7c9d1fa22af0ec82c7,5a464f699d1fa22af0ec8111,2017-12-24 15:34:10 UTC,2017-12-24 15:34:10 UTC,40
5a4660729d1fa236ffe64f36,10,1,5a464f7c9d1fa22af0ec82c7,5a464f6a9d1fa22af0ec8138,2017-12-29 13:47:10 UTC,2017-12-29 13:47:10 UTC
5a4660729d1fa236ffe64f40,60,1,5a464f7c9d1fa22af0ec82c7,5a464f6f9d1fa22af0ec81c7,2017-12-29 14:09:10 UTC,2017-12-29 14:09:10 UTC
5a4660739d1fa236ffe64f47,70,2,5a464f7c9d1fa22af0ec82c7,5a464f6c9d1fa22af0ec816e,2017-12-13 13:00:52 UTC,2017-12-29 14:58:11 UTC
5a4660739d1fa236ffe64f4b,60,1,5a464f7c9d1fa22af0ec82c7,5a464f729d1fa22af0ec8202,2017-12-29 15:02:11 UTC,2017-12-29 15:02:11 UTC
5a4b82849d1fa24e580ef8be,20,1,5a464f7c9d1fa22af0ec82c7,5a464f699d1fa22af0ec810e,2017-12-17 13:00:52 UTC,2017-12-17 13:00:52 UTC
5a4b82849d1fa24e580ef8ca,30,1,5a464f7c9d1fa22af0ec82c7,5a464f729d1fa22af0ec81f8,2017-12-22 13:00:52 UTC,2017-12-22 13:00:52 UTC
5a4b82849d1fa24e580ef8cc,1,5a464f7c9d1fa22af0ec82c7,5a464f699d1fa22af0ec811d,2017-12-22 13:00:52 UTC,2017-12-22 13:00:52 UTC,30
5a4b82859d1fa24e580ef8dc,10,1,5a464f7c9d1fa22af0ec82c7,5a464f719d1fa22af0ec81ef,2017-12-27 13:00:53 UTC,2017-12-27 13:00:53 UTC
5a4b82859d1fa24e580ef8e3,20,1,5a464f7c9d1fa22af0ec82c7,5a464f739d1fa22af0ec8210,2017-12-29 13:00:53 UTC,2017-12-29 13:00:53 UTC
5a4b82859d1fa24e580ef8e8,40,1,5a464f7c9d1fa22af0ec82c7,5a464f6e9d1fa22af0ec81a3,2018-01-02 11:34:53 UTC,2018-01-02 11:34:53 UTC
5a4b82869d1fa24e580ef91b,20,1,5a464f7c9d1fa22af0ec82c7,5a464f6e9d1fa22af0ec81ac,2018-01-02 12:59:54 UTC,2018-01-02 12:59:54 UTC
